{
    "python.linting.enabled": true,
    "python.linting.pylintEnabled": true,
    "python.formatting.provider": "black",
    "python.analysis.typeCheckingMode": "basic",
    "python.analysis.diagnosticSeverityOverrides": {
        "reportPrivateImportUsage": "none"
    },
    "diagnostic.errorSign": "✘",
    "diagnostic.warningSign": "",
    "diagnostic.infoSign": "",
    "diagnostic.hintSign": "",
    "python.linting.pylintArgs": [
        "--generated-members",
        "torch.*, numpy.*, onnx.*, onnxruntime.*, cv2.*, gi.*"
    ]
}

